{
    "/js/cobweb.min.js": "/js/cobweb.min.js?id=5fb47444a4b15e8f2d40",
    "/js/vendor.min.js": "/js/vendor.min.js?id=990acad689e4d03ffc3e",
    "/css/cobweb.min.css": "/css/cobweb.min.css?id=12be2ec09ed96c71007a",
    "/css/vendor.min.css": "/css/vendor.min.css?id=3a1d7174b9469cf02e11"
}
